Gene Start (bp)	Gene End (bp)	Chromosome Name	FlyBaseName gene
1042	92187	3RHet	CG40155
242409	419079	3RHet	CG15831
412765	412948	3RHet	CR12798
558007	672236	3RHet	CG42621
838957	839929	3RHet	CG42624
859445	859735	3RHet	CR40182
1016923	1017221	3RHet	CG41281
1130828	1310687	3RHet	CG41056
1506266	1597394	3RHet	CG42618
1685102	1706064	3RHet	CG41099
1806528	1808475	3RHet	CG41128
1813575	1824026	3RHet	Tim17b
1894569	1899122	3RHet	Alg-2
1935205	2026815	3RHet	Parp
2127184	2158789	3RHet	spok
2204674	2308114	3RHet	CG42617
2381982	2446597	3RHet	CG42402
2470208	2481648	3RHet	Gfat1
2481660	2482418	3RHet	CR41601
2504376	2506001	3RHet	CG40198
